﻿{
  "version": "1.0.0-*",
  "description": "CreateBooksDatabase Console Application",
  "authors": [ "Christian" ],
  "tags": [ "" ],
  "projectUrl": "",
  "licenseUrl": "",

  "compilationOptions": {
    "emitEntryPoint": true
  },

  "tools": {
    "dotnet-ef": "1.0.0-*"
  },


  "dependencies": {
    "NETStandard.Library": "1.0.0-*",
    "Microsoft.EntityFrameworkCore": "1.0.0-*",
    "Microsoft.EntityFrameworkCore.SqlServer": "1.0.0-*"
  },

  "frameworks": {
    "netstandardapp1.5": {
      "imports": [ "dotnet5.6", "dnxcore50", "portable-net45+win8" ]
    }
  },
  "runtimes": {
    "win7-x64": { },
    "win10-x64": { }
  }
}
