{
  "version": "1.0.0-*",
  "description": "",
  "authors": [ "" ],
  "tags": [ "" ],
  "projectUrl": "",
  "licenseUrl": "",
  "compilationOptions": {
    "emitEntryPoint": true
  },

  "dependencies": {
    "NETStandard.Library": "1.0.0-*",
    "System.Dynamic.Runtime": "4.0.11-rc2-23705"
  },

  "commands": {
    "DynamicSample": "DynamicSample"
  },

  "frameworks": {
    "net46": {
      "dependencies": {

      }
    },
    "dnxcore50": {
      "dependencies": { }
    }
  }
}
