﻿{
  "version": "1.0.0-*",
  "description": "PipelineSample Console Application",
  "authors": [ "Christian" ],
  "tags": [ "" ],
  "projectUrl": "",
  "licenseUrl": "",
  "compilationOptions": {
    "emitEntryPoint": true
  },

  "dependencies": {
    "NETStandard.Library": "1.0.0-*"
  },
  "commands": {
    "PipelineSample": "PipelineSample"
  },
  "frameworks": {
    "net46": {
      "dependencies": {

      }
    },
    "dnxcore50": {
      "dependencies": { }
    }
  }
}
