{
  "version": "1.0.0-*",
  "description": "DictionarySample Console Application",
  "authors": [ "Christian" ],
  "tags": [ "" ],
  "projectUrl": "",
  "licenseUrl": "",
  "compilationOptions": {
    "emitEntryPoint": true
  },

  "dependencies": {
    "NETStandard.Library": "1.0.0-*"
  },

  "commands": {
    "DictionarySample": "DictionarySample"
  },

  "frameworks": {
    "dnx46": {
      "dependencies": {
      }
    },
    "dnxcore50": {
      "dependencies": {
      }
    }
  }
}
