﻿{
  "commands": {
    "web": "WebSampleApp"
  },
  "compilationOptions": {
    "emitEntryPoint": true
  },
  "dependencies": {
    "Microsoft.AspNetCore.Hosting": "1.0.0-*",
    "Microsoft.AspNetCore.Http.Abstractions": "1.0.0-*",
    "Microsoft.AspNetCore.Http.Extensions": "1.0.0-*",
    "Microsoft.AspNetCore.Http.Features": "1.0.0-*",
    "Microsoft.AspNetCore.IISPlatformHandler": "1.0.0-*",
    "Microsoft.AspNetCore.Server.Kestrel": "1.0.0-*",
    "Microsoft.AspNetCore.Session": "1.0.0-*",
    "Microsoft.AspNetCore.StaticFiles": "1.0.0-*",
    "Microsoft.Extensions.Caching.Memory": "1.0.0-*",
    "Microsoft.Extensions.Configuration": "1.0.0-*",
    "Microsoft.Extensions.Configuration.Abstractions": "1.0.0-*",
    "Microsoft.Extensions.Configuration.UserSecrets": "1.0.0-*",
    "Microsoft.Extensions.Logging.Console": "1.0.0-*",
    "Microsoft.Extensions.Logging.Debug": "1.0.0-*",
    "Microsoft.Extensions.PlatformAbstractions": "1.0.0-*",
    "Microsoft.NETCore.Platforms": "1.0.1-*",
    "Newtonsoft.Json": "8.0.2",
    "System.Globalization.Extensions": "4.0.1-rc3-23812"
  },
  "exclude": [
    "wwwroot",
    "node_modules"
  ],
  "frameworks": {
    "net46": {
      "dependencies": {

      }
    },
    "dnxcore50": {
      "dependencies": {
        "NETStandard.Library": "1.0.0-*"
      }
    }

  },
  "content": [ "hosting.json", "appsettings.json" ],
  "publishExclude": [
    "**.user",
    "**.vspscc"
  ],
  "userSecretsId": "aspnet5-WebSampleApp-20151215011720",
  "version": "1.0.0-*"
}
