{
  "version": "1.0.0-*",
  "description": "",
  "authors": [ "" ],
  "tags": [ "" ],
  "projectUrl": "",
  "licenseUrl": "",
  "compilationOptions": {
    "emitEntryPoint": true
  },  

  "dependencies": {
    "NETStandard.Library": "1.0.0-*",
    "VectorClass": "1.0.0-*",
    "WhatsNewAttributes": "1.0.0-*"
  },


  "commands": {
    "LookupWhatsNew": "LookupWhatsNew"
  },

  "frameworks": {
    "net46": {
      "dependencies": {

      }
    },
    "dnxcore50": {
      "dependencies": {
      }
    }
  }
}
