﻿{
  "version": "1.0.0-*",
  "description": "",
  "authors": [ "Christian" ],
  "tags": [ "" ],
  "projectUrl": "",
  "licenseUrl": "",
  "compilationOptions": {
    "emitEntryPoint": true
  },

  "dependencies": {
    "NETStandard.Library": "1.0.0-*",
    "System.Security.Principal.Windows": "4.0.0-*"
  },

  "commands": {
    "WindowsPrincipal": "WindowsPrincipal"
  },

  "frameworks": {
    "net46": {
      "dependencies": {
      }
    },
    "dnxcore50": {
      "dependencies": {

      }
    }
  }
}
